11:44:06 ADD : 10.0.100.88:2812 <Port name - 9010>
11:45:10 ADD : 10.0.100.88:2844 <Port name - 9011>
11:45:34 Remove : 10.0.100.88:2844 : 10.0.100.88:9999 <Port name - 9011>
11:45:37 ADD : 10.0.100.88:2848 <Port name - 9011>
11:58:37 Remove : 10.0.100.88:2848 : 10.0.100.88:9999 <Port name - 9011>
11:59:04 Remove : 10.0.100.88:2812 : 10.0.100.88:6010 <Port name - 9010>
13:05:33 ADD : 10.0.100.88:3430 <Port name - 9010>
13:06:09 ADD : 10.0.100.88:3463 <Port name - 9011>
13:45:40 Remove : 10.0.100.88:3463 : 10.0.100.88:9999 <Port name - 9011>
