11:46:30 : 11:46:30 - TG7 - TRIGGER_SEND : 888 : GATEWAY_OK :  Send : 0 NotConnect Gateway
11:46:31 : 11:46:31 - TG7 - TRIGGER_SEND : 888 : GATEWAY_OK :  Send : 0 NotConnect Gateway
11:46:35 : 11:46:35 - ZM - TRIGGER_OK : 888 : *>R001010
11:47:05 : 11:47:05 - ZM - GATEWAY_SEND : 888 : R OK 888
11:47:31 : 11:47:31 - ZM - TRIGGER_OK : 888 : *>R001010
11:47:32 : 11:47:32 - ZM - GATEWAY_OK : 888 : *>R001010
11:47:57 : 11:47:56 - ZM - GATEWAY_SEND : 888 : R OK 888
11:48:54 : 11:48:53 - ZM - TRIGGER_OK : 888 : *>R001010
11:48:55 : 11:48:54 - ZM - GATEWAY_OK : 888 : *>R001010
11:50:37 : 11:50:32 - ZM - GATEWAY_SEND : 888 : Report:888:R:888~~~~~~~
11:51:36 : 11:51:36 - ZM - GATEWAY_SEND : 888 : R OK 888
11:55:04 : 11:55:04 - ZM - TRIGGER_OK : 888 : *>R001010
11:55:09 : 11:55:09 - ZM - GATEWAY_OK : 888 : *>R001010
11:55:17 : 11:55:17 - ZM - GATEWAY_SEND : 888 : Report:888:R:888~~~~~~~
11:55:59 : 11:55:59 - ZM - GATEWAY_SEND : 888 : R OK 888
11:56:02 : 11:56:02 - ZM - TRIGGER_OK : 888 : *>R001010
11:56:04 : 11:56:03 - ZM - GATEWAY_OK : 888 : *>R001010
11:56:12 : 11:56:12 - ZM - GATEWAY_SEND : 888 : Report:888:R:888~~~~~~~
11:56:16 : 11:56:15 - ZM - GATEWAY_SEND : 888 : R OK 888
11:57:04 : 11:57:03 - ZM - TRIGGER_OK : 888 : *>R001010
11:57:05 : 11:57:04 - ZM - GATEWAY_OK : 888 : *>R001010
11:57:09 : 11:57:09 - ZM - GATEWAY_SEND : 888 : Report:888:R:888~~~~~~~
11:57:11 : 11:57:11 - ZM - GATEWAY_SEND : 888 : R OK 888
13:08:46 : 13:08:45 - ZM - TRIGGER_OK : 888 : *>R001010
13:08:47 : 13:08:46 - ZM - GATEWAY_ERROR : 888 : *>R001010
13:14:22 : 13:14:21 - ZM - TRIGGER_OK : 888 : *>R001010
13:14:23 : 13:14:22 - ZM - GATEWAY_OK : 888 : *>R001010
13:14:32 : 13:14:32 - ZM - GATEWAY_SEND : 888 : Report:888:R:888~~~~~~~
13:14:36 : 13:14:35 - ZM - GATEWAY_SEND : 888 : R OK 888
13:16:18 : 13:16:17 - ZM - TRIGGER_OK : 888 : *>R001010
13:16:19 : 13:16:18 - ZM - GATEWAY_OK : 888 : *>R001010
13:16:30 : 13:16:30 - ZM - GATEWAY_SEND : 888 : Report:888:R:888~~~~~~~
13:16:33 : 13:16:33 - ZM - GATEWAY_SEND : 888 : R OK 888
13:16:47 : 13:16:46 - ZM - TRIGGER_OK : 888 : *>R001010
13:16:48 : 13:16:47 - ZM - GATEWAY_OK : 888 : *>R001010
13:16:59 : 13:16:58 - ZM - GATEWAY_SEND : 888 : Report:888:R:888~~~~~~~
13:17:01 : 13:17:01 - ZM - GATEWAY_SEND : 888 : R OK 888
13:29:34 : 13:29:34 - ZM - TRIGGER_OK : 888 : *>R001010
13:29:36 : 13:29:35 - ZM - GATEWAY_OK : 888 : *>R001010
13:29:38 : 13:29:38 - ZM - GATEWAY_SEND : 888 : Report:888:R:888~~~~~~~
13:29:40 : 13:29:40 - ZM - GATEWAY_SEND : 888 : R OK 888
13:30:36 : 13:30:36 - ZM - TRIGGER_OK : 888 : *>R001010
13:30:38 : 13:30:37 - ZM - GATEWAY_OK : 888 : *>R001010
13:30:52 : 13:30:51 - ZM - GATEWAY_SEND : 888 : Report:888:R:888~~~~~~~
13:30:54 : 13:30:53 - ZM - GATEWAY_SEND : 888 : R OK 888
13:33:36 : 13:33:36 - ZM - TRIGGER_OK : 888 : *>R001010
13:33:37 : 13:33:37 - ZM - GATEWAY_OK : 888 : *>R001010
13:35:10 : 13:35:10 - ZM - GATEWAY_SEND : 888 : TIMEOUT
13:35:21 : 13:35:21 - ZM - TRIGGER_OK : 888 : *>R001010
13:35:22 : 13:35:22 - ZM - GATEWAY_OK : 888 : *>R001010
13:35:32 : 13:35:32 - ZM - GATEWAY_SEND : 888 : Report:888:R:888~~~~~~~
13:35:34 : 13:35:34 - ZM - GATEWAY_SEND : 888 : R OK 888
13:38:10 : 13:38:10 - ZM - TRIGGER_OK : 888 : *>R001010
13:38:11 : 13:38:11 - ZM - GATEWAY_OK : 888 : *>R001010
13:38:16 : 13:38:16 - ZM - GATEWAY_SEND : 888 : Report:888:R:888~~~~~~~
13:38:18 : 13:38:18 - ZM - GATEWAY_SEND : 888 : R OK 888
13:38:40 : 13:38:40 - ZM - TRIGGER_OK : 888 : *>R001010
13:38:41 : 13:38:41 - ZM - GATEWAY_OK : 888 : *>R001010
13:38:45 : 13:38:45 - ZM - GATEWAY_SEND : 888 : Report:888:R:888~~~~~~~
13:38:47 : 13:38:47 - ZM - GATEWAY_SEND : 888 : R OK 888
13:41:41 : 13:41:41 - ZM - TRIGGER_OK : 888 : *>R001010
13:41:42 : 13:41:42 - ZM - GATEWAY_OK : 888 : *>R001010
13:41:46 : 13:41:46 - ZM - GATEWAY_SEND : 888 : Report:888:R:888~~~~~~~
13:41:48 : 13:41:48 - ZM - GATEWAY_SEND : 888 : R OK 888
13:42:39 : 13:42:39 - ZM - TRIGGER_OK : 888 : *>R001010
13:42:40 : 13:42:40 - ZM - GATEWAY_OK : 888 : *>R001010
13:42:48 : 13:42:48 - ZM - GATEWAY_SEND : 888 : Report:888:R:888~~~~~~~
13:42:51 : 13:42:51 - ZM - GATEWAY_SEND : 888 : R OK 888
13:43:09 : 13:43:09 - ZM - TRIGGER_OK : 888 : *>R001010
13:43:10 : 13:43:10 - ZM - GATEWAY_OK : 888 : *>R001010
13:43:17 : 13:43:17 - ZM - GATEWAY_SEND : 888 : Report:888:R:888~~~~~~~
13:43:19 : 13:43:19 - ZM - GATEWAY_SEND : 888 : R OK 888
13:44:00 : 13:44:00 - ZM - TRIGGER_OK : 888 : *>R016047
13:44:01 : 13:44:01 - ZM - GATEWAY_OK : 888 : *>R016047
13:45:07 : 13:45:07 - ZM - TRIGGER_OK : 888 : *>R016047
13:45:08 : 13:45:08 - ZM - GATEWAY_OK : 888 : *>R016047
13:45:19 : 13:45:19 - ZM - GATEWAY_SEND : 888 : Report:888:R:internet~~~~~~~~~~~~~~~~~~~~~~~~
13:45:22 : 13:45:22 - ZM - GATEWAY_SEND : 888 : R OK 888
