14:33:42,1301224013,Fencing,268.0153,ms
14:33:43,1301224013,ZoneCurfew,407.0233,ms
14:33:47,1301224013,GetNPutLocation,970.0555,ms
14:33:49,1301224013,ETA1,1529.0875,ms
14:33:59,1301224013,ETA2,1429.0817,ms
14:34:01,1301224003,Speeding,982.0562,ms
14:34:02,1301224003,Speeding,6100.349,ms
